<svg width="8" height="4" viewBox="0 0 8 4" fill="none" xmlns="http://www.w3.org/2000/svg">
<path d="M8.90323 4.00478L4.70046 0.0904308C4.64516 0.0258375 4.57604 0 4.49309 0C4.42396 0 4.35484 0.0258375 4.28571 0.0904308L0.0967742 4.00478C0.0276498 4.06938 0 4.13397 0 4.19856C0 4.27608 0.0276498 4.34067 0.0967742 4.39234L0.552995 4.81866C0.608295 4.87034 0.677419 4.90909 0.760369 4.90909C0.843318 4.90909 0.912442 4.88325 0.967742 4.81866L4.50691 1.51148L8.04608 4.81866C8.10138 4.87034 8.17051 4.90909 8.25346 4.90909C8.33641 4.90909 8.40553 4.88325 8.46083 4.81866L8.91705 4.39234C8.97235 4.34067 9 4.27608 9 4.19856C8.98618 4.13397 8.95853 4.06938 8.90323 4.00478Z" transform="scale(0.814815)" fill="white"/>
</svg>
