<svg width="10" height="19" viewBox="0 0 10 19" fill="none" xmlns="http://www.w3.org/2000/svg">
<path d="M10.0721 9.60914H6.36503V19.2183H2.06339V9.60914H-5.33641e-07V6.45089H2.06339V4.40139C2.06339 1.64632 3.28744 0 6.71476 0H10.6317V3.39344H7.44919C6.50492 3.39344 6.36503 3.86382 6.36503 4.77097V6.48449H10.6667L10.0721 9.60914Z" transform="scale(0.937499)" fill="white"/>
</svg>
