<svg width="20" height="14" viewBox="0 0 20 14" fill="none" xmlns="http://www.w3.org/2000/svg">
<path d="M9.64282 2.1111L7.14283 1.67775e-07L5.32182e-09 5.98146C0.357141 6.15738 0.714283 6.33331 1.07142 6.33331H18.2142C18.5713 6.33331 18.9285 6.15738 19.1071 5.98146L12.1428 1.67775e-07L9.64282 2.1111Z" transform="translate(0.35519 7.69979) scale(0.994775)" fill="white"/>
<path d="M18.9285 0.35185C18.7499 0.175925 18.3928 0 18.0356 0H0.892853C0.535712 0 0.178571 0.175925 2.12873e-08 0.35185L9.46424 8.44441L18.9285 0.35185Z" transform="translate(0.533088) scale(0.994775)" fill="white"/>
<path d="M0 -2.09719e-08V11.6111L6.96426 5.80553L0 -2.09719e-08Z" transform="translate(0 1.22501) scale(0.994775)" fill="white"/>
<path d="M3.40596e-07 5.98146L6.96425 11.787V-2.09719e-08L3.40596e-07 5.98146Z" transform="translate(12.9678 1.22501) scale(0.994775)" fill="white"/>
</svg>
