<svg xmlns="http://www.w3.org/2000/svg" width="75" height="75" viewBox="0 0 75 75">
  <path d="M16.5 11.5v-1h-1v1h1zm0 52h-1v1h1v-1zm5 0v1h1v-1h-1zm0-52h1v-1h-1v1zm25.5 8v-1h-1v1h1zm0 17h-1v1h1v-1zm3.5 0v1h1v-1h-1zm0-17h1v-1h-1v1zM38 49.5v-1h-1v1h1zm32 0h1v-1h-1v1zm0 3.5v1h1v-1h-1zm-32 0h-1v1h1v-1zm14-13v-1h-1v1h1zm0 23.5h-1v1h1v-1zm4.5 0v1h1v-1h-1zm0-23.5h1v-1h-1v1zm-51-26.5c0-.6.4-1 1-1v-2c-1.7 0-3 1.3-3 3h2zm1-1h25v-2h-25v2zm25 0c.6 0 1 .4 1 1h2c0-1.7-1.3-3-3-3v2zm1 1v48h2v-48h-2zm0 48c0 .6-.4 1-1 1v2c1.7 0 3-1.3 3-3h-2zm-1 1h-25v2h25v-2zm-25 0c-.6 0-1-.4-1-1h-2c0 1.7 1.3 3 3 3v-2zm-1-1v-48h-2v48h2zm33-20c0-.6.4-1 1-1v-2c-1.7 0-3 1.3-3 3h2zm1-1h29v-2h-29v2zm29 0c.6 0 1 .4 1 1h2c0-1.7-1.3-3-3-3v2zm1 1v20h2v-20h-2zm0 20c0 .6-.4 1-1 1v2c1.7 0 3-1.3 3-3h-2zm-1 1h-29v2h29v-2zm-29 0c-.6 0-1-.4-1-1h-2c0 1.7 1.3 3 3 3v-2zm-1-1v-20h-2v20h2zm0-40c0-.6.4-1 1-1v-2c-1.7 0-3 1.3-3 3h2zm1-1h19v-2h-19v2zm19 0c.6 0 1 .4 1 1h2c0-1.7-1.3-3-3-3v2zm1 1v13h2v-13h-2zm0 13c0 .6-.4 1-1 1v2c1.7 0 3-1.3 3-3h-2zm-1 1h-19v2h19v-2zm-19 0c-.6 0-1-.4-1-1h-2c0 1.7 1.3 3 3 3v-2zm-1-1v-13h-2v13h2zm-23-23v52h2v-52h-2zm1 53h5v-2h-5v2zm6-1v-52h-2v52h2zm-1-53h-5v2h5v-2zm24.5 9v17h2v-17h-2zm1 18h3.5v-2H47v2zm4.5-1v-17h-2v17h2zm-1-18H47v2h3.5v-2zM38 50.5h14v-2H38v2zm14 0h4.5v-2H52v2zm4.5 0H70v-2H56.5v2zm12.5-1V53h2v-3.5h-2zm1 2.5H56.5v2H70v-2zm-13.5 0H52v2h4.5v-2zM52 52H38v2h14v-2zm-13 1v-3.5h-2V53h2zm12-13v9.5h2V40h-2zm0 9.5V53h2v-3.5h-2zm0 3.5v10.5h2V53h-2zm1 11.5h4.5v-2H52v2zm5.5-1V53h-2v10.5h2zm0-10.5v-3.5h-2V53h2zm0-3.5V40h-2v9.5h2zm-1-10.5H52v2h4.5v-2z" fill="#2795ca"/>
</svg>
