<svg width="18" height="19" viewBox="0 0 18 19" fill="none" xmlns="http://www.w3.org/2000/svg">
<rect width="6.09524" height="6.09524" transform="translate(1 1)" stroke="#42A2D1" stroke-width="1.5" stroke-linejoin="round"/>
<rect width="6.09524" height="6.09524" transform="translate(10.9048 1)" stroke="#42A2D1" stroke-width="1.5" stroke-linejoin="round"/>
<rect width="6.09524" height="6.09524" transform="translate(1 11.667)" stroke="#42A2D1" stroke-width="1.5" stroke-linejoin="round"/>
<rect width="6.09524" height="6.09524" transform="translate(10.9048 11.667)" stroke="#42A2D1" stroke-width="1.5" stroke-linejoin="round"/>
</svg>
