<svg width="20" height="21" viewBox="0 0 20 21" fill="none" xmlns="http://www.w3.org/2000/svg">
<mask id="mask0" mask-type="alpha" maskUnits="userSpaceOnUse" x="-3" y="-6" width="26" height="27">
<ellipse cx="13" cy="13.1604" rx="13" ry="13.1604" transform="translate(-2.85717 -5.06192) scale(0.989011)" fill="#DFDFDF"/>
</mask>
<g mask="url(#mask0)">
<path d="M12.7368 15.1975C12.7008 14.7159 12.6792 14.1538 12.6792 13.5872C12.6792 13.3541 12.6828 13.1211 12.69 12.8899L12.6891 12.9237C13.3473 12.2291 13.7867 11.317 13.8894 10.3026L13.8912 10.2834C14.1964 10.2578 14.6782 9.95619 14.8186 8.76079C14.8331 8.69316 14.8412 8.61456 14.8412 8.53414C14.8412 8.17223 14.6719 7.85144 14.4089 7.64764L14.4062 7.64581C14.9033 6.12871 15.9352 1.43485 12.4964 0.950472C12.1425 0.31987 11.2367 0 10.0589 0C5.34685 0.0877358 4.77867 3.61088 5.80878 7.64581C5.54405 7.85236 5.37476 8.17314 5.37476 8.53414C5.37476 8.61456 5.38287 8.69316 5.39908 8.76902L5.39817 8.7617C5.54225 9.95528 6.02038 10.2587 6.32563 10.2843C6.43999 11.3207 6.89112 12.2337 7.56285 12.9237C7.56915 13.1193 7.57275 13.3496 7.57275 13.5799C7.57275 14.1492 7.55204 14.7131 7.51062 15.2715L7.51512 15.1975C6.58046 17.7418 0.288143 17.0272 0 21.934H20.2222C19.9323 17.0272 13.6688 17.7418 12.7359 15.1975H12.7368Z" transform="scale(0.989011)" fill="white"/>
</g>
</svg>
