<svg xmlns="http://www.w3.org/2000/svg" width="75" height="75" viewBox="0 0 75 75">
  <path d="M54.6 12.9l.7.7c.2-.3.3-.6.2-1-.1-.3-.4-.6-.7-.7l-.2 1zm-10.9 2.8l-.6-.7.6.7zm-2.8 10.5l.7.7c.2-.2.3-.6.3-.9l-1 .2zM14.8 52.7l.7.7-.7-.7zm8 8.1l.7.7-.7-.7zm26.1-26.5l.2-1c-.3-.1-.7 0-1 .3l.8.7zM62 20.4l1-.3c-.1-.3-.4-.6-.7-.7-.3-.1-.7 0-.9.3l.6.7zm-5.4 5.5l-.2 1c.3.1.7 0 1-.3l-.8-.7zm-3-.8l-.3 1 .3-1zm-2.9-.7l-1 .3c.1.3.4.6.7.7l.3-1zm-1.5-5.8l-.7-.7c-.2.3-.3.6-.3 1l1-.3zm2.1-2.2l.7.7-.7-.7zm-1.7 27.3l.7-.7c-.2-.2-.4-.3-.7-.3s-.5.1-.7.3l.7.7zm8.9 9l.7-.7-.7.7zm-8 8.1l-.7.7.7-.7zm-8.9-9l-.7-.7c-.4.4-.4 1 0 1.4l.7-.7zM22.1 22.6c-.4-.4-1-.4-1.4 0-.4.4-.4 1 0 1.4l1.4-1.4zm9.6 12.5c.4.4 1 .4 1.4 0 .4-.4.4-1 0-1.4l-1.4 1.4zm9.6 6.8c-.4-.4-1-.4-1.4 0-.4.4-.4 1 0 1.4l1.4-1.4zm3.7 6.6c.4.4 1 .4 1.4 0 .4-.4.4-1 0-1.4L45 48.5zM12.5 17.4l-.7-.7c-.3.3-.4.8-.1 1.2l.8-.5zm3.5-3.6l.5-.9c-.4-.2-.9-.2-1.2.2l.7.7zm8.1 4.9l.7.7c.2-.2.3-.5.3-.8 0-.3-.2-.6-.5-.7l-.5.8zm-6.6 6.7l-.9.6c.2.3.4.4.7.5.3 0 .6-.1.8-.3l-.6-.8zM54.9 12c-4.1-1.2-8.6-.2-11.8 3l1.4 1.4c2.8-2.6 6.5-3.5 9.9-2.5l.5-1.9zM43 15c-3.1 3.2-4.1 7.5-3.1 11.5l1.9-.5c-.8-3.3 0-6.9 2.6-9.6L43 15zm-2.8 10.5L14.1 52l1.4 1.4 26.1-26.5-1.4-1.4zM14.1 52c-2.5 2.5-2.7 6.8 0 9.5l1.4-1.4c-1.9-1.9-1.7-4.9 0-6.7L14.1 52zm0 9.5c2.7 2.7 6.8 2.7 9.4 0l-1.4-1.4c-1.9 1.9-4.7 1.9-6.6 0l-1.4 1.4zm9.4 0L49.6 35l-1.4-1.4-26.1 26.5 1.4 1.4zm25.1-26.3c3.9 1 8.2 0 11.4-3.2l-1.4-1.4c-2.6 2.6-6.2 3.5-9.5 2.6l-.5 2zM60 32.1c3.1-3.2 4.3-7.8 3-12l-1.9.6c1.1 3.4.1 7.3-2.5 10l1.4 1.4zm-3.2-7.2l-3-.8-.5 1.9 3 .8.5-1.9zm-3-.7l-2.9-.8-.5 1.9 2.9.8.5-1.9zm-3.9-4.9l2.1-2.1-1.4-1.4-2.1 2.1 1.4 1.4zm2.1-2.2l3.3-3.5-1.5-1.4-3.3 3.5 1.5 1.4zm-3.1 27.3l8.9 9 1.4-1.4-8.9-9-1.4 1.4zm8.9 9c1.7 1.8 1.9 4.8 0 6.7l1.4 1.4c2.7-2.7 2.5-7 0-9.5l-1.4 1.4zm0 6.7c-1.9 1.9-4.7 1.9-6.6 0l-1.4 1.4c2.7 2.7 6.8 2.7 9.4 0l-1.4-1.4zm-6.6 0l-8.9-9-1.4 1.4 8.9 9 1.4-1.4zm-8.9-7.6l8-8.1-1.4-1.4-8 8.1 1.4 1.4zM20.7 24l11 11.1 1.4-1.4-11-11.1-1.4 1.4zm19.2 19.4l5.1 5.2 1.4-1.4-5.1-5.2-1.4 1.4zM13.2 18.1l3.5-3.5-1.4-1.4-3.5 3.5 1.4 1.4zm2.3-3.4l8.2 4.9 1-1.7-8.2-4.9-1 1.7zm7.9 3.3l-6.6 6.7 1.4 1.4 6.6-6.7-1.4-1.4zm-5.1 6.9l-5-8.1-1.7 1 5 8.1 1.7-1zm43-5.2l-5.4 5.5 1.4 1.4 5.4-5.5-1.4-1.4zm-9.6 4.4l-1.5-5.8-1.9.5 1.5 5.8 1.9-.5z" fill="#2795ca"/>
</svg>
