<svg xmlns="http://www.w3.org/2000/svg" width="75" height="75" viewBox="0 0 75 75">
  <path d="M32.4 36.2v-1c-.6 0-1 .4-1 1h1zm0 6.6h-1c0 .6.4 1 1 1v-1zm10 0v1c.6 0 1-.4 1-1h-1zm0-6.6h1c0-.6-.4-1-1-1v1zM19.2 52.3h-1c0 .3.1.5.3.7.2.2.4.3.7.3v-1zm0-16.6v-1c-.6 0-1 .4-1 1h1zm36.6 0h1c0-.6-.4-1-1-1v1zm0 16.1v1c.5 0 1-.5 1-1h-1zm1 11.9c0-.6-.4-1-1-1s-1 .4-1 1h2zm-1 3.3v1c.6 0 1-.4 1-1h-1zm-36.6 0h-1c0 .6.4 1 1 1v-1zm1-3.7c0-.6-.4-1-1-1s-1 .4-1 1h2zm17.3-35.6l-.3.9c.2.1.4.1.6 0l-.3-.9zm8.3-11.2h-1 1zM14.5 60.4c.4.4 1 .3 1.4-.1.4-.4.3-1-.1-1.4l-1.3 1.5zm-5-5.6l-.7.7.7-.7zm-1.3-7.9l.8.6-.8-.6zm12.3-18l.3.9-.3-.9zm34 0l-.3 1 .3-1zm12.3 18l-.8.6.8-.6zm-1.3 7.9l-.7-.8.7.8zm-6.1 3.7c-.4.4-.5 1-.1 1.4.4.4 1 .5 1.4.1l-1.3-1.5zm-29.7-44c-.6 0-1 .4-1 1s.4 1 1 1v-2zm21.9 2c.6 0 1-.4 1-1s-.4-1-1-1v2zM31.4 36.2v6.5h2v-6.5h-2zm1 7.6h10v-2h-10v2zm11-1v-6.5h-2v6.5h2zm-1-7.6h-10v2h10v-2zM20.2 52.3V35.7h-2v16.5h2zm-1-15.6h36.6v-2H19.2v2zm35.6-1v16h2v-16h-2zm1 15.1l-36.6.5v2l36.6-.5v-2zm-1 12.9V67h2v-3.3h-2zm1 2.3H19.2v2h36.6v-2zm-35.6 1v-3.7h-2V67h2zm17.6-40.2c-3.1-1-5-2.5-6.1-4.2-1.1-1.7-1.5-3.7-1.5-6.1h-2c0 2.5.4 5 1.8 7.1 1.4 2.2 3.7 3.9 7.2 5l.6-1.8zm-7.6-10.3c0-4.5 3.3-7.5 7.3-7.5V7c-5.1 0-9.3 4-9.3 9.5h2zM37.5 9c4 0 7.3 3.1 7.3 7.5h2c0-5.6-4.2-9.5-9.3-9.5v2zm7.3 7.5c0 2.4-.4 4.5-1.5 6.2-1.1 1.7-2.9 3.1-6.1 4.1l.6 1.9c3.5-1.1 5.8-2.7 7.2-4.9 1.4-2.1 1.8-4.7 1.8-7.3h-2zm-29 42.4L10.2 54l-1.3 1.5 5.6 4.8 1.3-1.4zm-5.6-4.8c-.7-.6-1.3-1.9-1.6-3.2-.3-1.4-.1-2.6.4-3.3l-1.7-1.1c-.9 1.3-1 3.2-.7 4.8.3 1.6 1 3.3 2.2 4.4l1.4-1.6zM9 47.5c.5-.8 1.4-2.3 2.5-4.1 1.1-1.8 2.4-3.9 3.7-5.9 1.3-2 2.6-3.9 3.6-5.4.5-.7 1-1.3 1.4-1.7l.5-.5c.1-.1.2-.1.1-.1l-.6-1.9c-.3.1-.6.3-.8.5l-.7.7c-.5.5-1 1.2-1.5 1.9-1.1 1.5-2.4 3.5-3.7 5.5-1.3 2-2.6 4.1-3.7 5.9-1.1 1.8-2 3.3-2.5 4L9 47.5zm11.9-17.7c.6-.2 1.5-.3 2.6-.4 1.1-.1 2.4-.1 3.8-.1v-2c-1.4 0-2.8 0-4 .1-1.2.1-2.2.2-3.1.5l.7 1.9zm26.8-.4c2.9 0 5 0 6.5.5l.6-1.9c-1.9-.6-4.2-.5-7.1-.5v1.9zm6.5.5c-.1-.1 0-.1 0 0 .2.2.4.3.6.5.4.4.9 1 1.4 1.7 1.1 1.4 2.4 3.3 3.6 5.3 2.6 4 5.1 8.4 6.2 10.1l1.7-1c-1-1.7-3.6-6.1-6.2-10.1-1.3-2-2.6-4-3.7-5.5-.6-.7-1.1-1.4-1.6-1.9-.2-.2-.5-.5-.7-.6-.2-.2-.5-.3-.8-.4l-.5 1.9zM66 47.5c.5.8.6 2.1.4 3.5-.3 1.4-.9 2.5-1.5 3.1l1.3 1.6c1.2-1 1.9-2.6 2.2-4.3.3-1.6.2-3.5-.7-4.9l-1.7 1zM64.8 54l-5.4 4.5 1.3 1.5 5.4-4.5-1.3-1.5zm-47.6.1h3.1v-2h-3.1v2zm3 0c1.2 0 2.1.9 2.1 2h2c0-2.2-1.8-4-4.1-4v2zm2.1 2v3.7h2v-3.7h-2zm0 3.7c0 1.1-.9 2-2.1 2v2c2.2 0 4.1-1.8 4.1-4h-2zm-2.1 2h-3.1v2h3.1v-2zm-3 0c-.3 0-.4-.1-.5-.2-.1-.1-.2-.2-.2-.5h-2c0 .7.3 1.4.8 1.9s1.2.7 1.9.7v-1.9zm-.7-.6V55h-2v6.2h2zm0-6.2c0-.3.1-.5.2-.6.1-.1.3-.2.5-.2v-2c-1.4 0-2.7 1.1-2.7 2.8h2zm41.3-2.9h-3.1v2h3.1v-2zm-3 0c-2.2 0-4.1 1.8-4.1 4h2c0-1.1.9-2 2.1-2v-2zm-4.1 4v3.7h2v-3.7h-2zm0 3.7c0 2.2 1.8 4 4.1 4v-2c-1.2 0-2.1-.9-2.1-2h-2zm4.1 4h3.1v-2h-3.1v2zm3 0c.7 0 1.4-.2 1.9-.7.5-.5.8-1.2.8-1.9h-2c0 .3-.1.4-.2.5-.1.1-.2.2-.5.2v1.9zm2.7-2.6V55h-2v6.2h2zm0-6.2c0-1.7-1.3-2.8-2.7-2.8v2c.2 0 .3.1.5.2.1.1.2.3.2.6h2zM29.7 16.5h21.9v-2H29.7v2zm-2.4 12.9h20.3v-2H27.3v2z" fill="#2795ca"/>
</svg>
