<svg xmlns="http://www.w3.org/2000/svg" width="75" height="75" viewBox="0 0 75 75">
  <path d="M32.1 52.9c.2.5.8.7 1.3.5s.7-.8.5-1.3l-1.8.8zm-12-8.6l.9-.5c-.2-.3-.5-.5-.8-.5-.3 0-.7.1-.9.4l.8.6zM26.3 56l.7.8c.4-.3.4-.8.2-1.2l-.9.4zm-5.5 4.8l-.9.5c.1.3.4.5.7.5.3.1.6 0 .8-.2l-.6-.8zm-5.5-10.3l-.8-.6c-.2.3-.3.7-.1 1.1l.9-.5zm9-16l-.8.6c.2.2.4.4.7.4.3 0 .6-.1.8-.3l-.7-.7zm31-28l-.6-.8.6.8zm2.9 0l.7-.7-.7.7zm9 9.1l-.7.7.7-.7zm.2.2l1-.2c0-.2-.1-.4-.3-.5l-.7.7zm1.6 7v1c.3 0 .6-.1.8-.4.2-.2.3-.6.2-.9l-1 .3zm-7.3-.4v-1c-.3 0-.6.1-.8.4-.2.2-.3.6-.2.9l1-.3zm1.6 7.1v1c.3 0 .6-.1.8-.4.2-.2.3-.6.2-.9l-1 .3zm-7.3-.4v-1c-.3 0-.6.1-.8.4s-.2.5-.1.8l.9-.2zm1.7 7.1v1c.3 0 .6-.1.8-.4.2-.2.3-.6.2-.9l-1 .3zm-7.3-.4v-1c-.3 0-.6.1-.8.4-.2.2-.3.6-.2.9l1-.3zm1.6 7v1c.3 0 .6-.1.8-.4.2-.2.3-.6.2-.9l-1 .3zm-7.3-.3v-1c-.3 0-.6.1-.8.4-.2.2-.3.6-.2.9l1-.3zm1.7 7v1c.3 0 .6-.1.8-.4.2-.2.3-.6.2-.9l-1 .3zm-7.3-.3v-1c-.3 0-.6.1-.8.4-.2.3-.3.6-.1.9l.9-.3zm2.3 6.8l-.2 1c.3.1.7-.1.9-.3s.3-.6.2-1l-.9.3zm-4.1-.7l-.6.8c.1.1.3.1.4.2l.2-1zm-30-5.2l-.7-.7.7.7zm14.8-14.7l-.7-.7.7.7zm10.4 24.7l.6.8c.2-.2.4-.4.4-.7l-1-.1zm-12.4 8.6l.6.8-.6-.8zm-1.8 0l-.8.5.8-.5zm-11-17l.8-.5c0-.1 0-.2-.1-.2l-.7.7zm25.9.9l.6-.8c-.3-.2-.7-.2-1 0-.3.2-.5.5-.5.9h.9zm-9.9-17.4l8.8 17.7 1.8-.9-8.8-17.7-1.8.9zm-4.1 9.6l6.2 11.6 1.8-.9L21 43.9l-1.8.9zm6.4 10.4L20.1 60l1.3 1.5 5.5-4.8-1.3-1.5zm-3.9 5.1L16.1 50l-1.7 1 5.5 10.3 1.8-1zm-5.6-9.2l4.8-6.2-1.6-1.2-4.8 6.2 1.6 1.2zM25 35.3l31-28-1.3-1.5-31 28 1.3 1.5zm30.9-28c.6-.5 1.3-.4 1.6-.1l1.4-1.4c-1.2-1.1-3-1-4.2-.1l1.2 1.6zm1.6-.1l8.9 9 1.4-1.4-8.9-9-1.4 1.4zm9 9.1l.2.2 1.4-1.4-.2-.2-1.4 1.4zm-.1-.3l1.6 7 1.9-.5-1.6-7-1.9.5zm2.6 5.8l-7.3-.4-.1 2 7.3.4.1-2zm-8.3.9l1.6 7 1.9-.5-1.6-7-1.9.5zm2.7 5.8l-7.3-.4-.1 2 7.3.4.1-2zm-8.3.8l1.6 7 1.9-.5-1.6-7-1.9.5zm2.6 5.9l-7.3-.4-.1 2 7.3.4.1-2zm-8.3.8l1.6 7 1.9-.5-1.6-7-1.9.5zm2.7 5.8l-7.3-.4-.1 2 7.3.4.1-2zm-8.3.9l1.6 7 1.9-.5-1.6-7-1.9.5zm2.6 5.8l-7.3-.4-.1 2 7.3.4.1-2zm-8.3 1l2.4 6.8 1.9-.7-2.4-6.8-1.9.7zm3.5 5.5l-4.1-.7-.3 2 4.1.7.3-2zM8 50.8l14.8-14.6-1.4-1.4L6.6 49.3 8 50.8zm14.8-14.7c.2-.2.6-.5.9-.7l.2-.1h-.2c-.1 0-.2-.1-.3-.2l1.7-1.1c-.4-.5-.9-.6-1.3-.6s-.7.2-1 .3c-.5.3-1.1.7-1.4 1l1.4 1.4zm9.1 23.2l-12.4 8.6 1.1 1.6L33 60.9l-1.1-1.6zm-12.3 8.5c-.1 0-.2.1-.2.1-.1 0-.2.1-.2.1H19s.1 0 .1.1l-1.7 1.1c.5.7 1.2.8 1.7.8s1.1-.2 1.5-.5l-1-1.7zm-.5.3l-10.9-17-1.7 1.1 10.9 17 1.7-1.1zM8 51v-.1-.1l-1.4-1.4c-1 1-.7 2.4 0 3L8 51zm24.5 9.1l1 .1V60c0-.1 0-.3.1-.6.1-.5.2-1.2.2-2 .2-1.5.4-3.5.4-4.9h-2c0 1.3-.2 3.1-.3 4.7-.1.8-.2 1.4-.2 1.9 0 .2-.1.4-.1.6v.2s-.1.1.9.2zm5.4-5.6l-4.1-2.7-1.1 1.7 4.1 2.7 1.1-1.7z" fill="#2795ca"/>
</svg>
